[
	{
		"name": "Все",
		"url": "/"
	},
	{
		"name": "Карточка партнеров",
		"url": "/card.html"
	},
	{
		"name": "Покупателям",
		"url": "/customers.html"
	},
	{
		"name": "Партнеры",
		"url": "/partners.html"
	},
	{
		"name": "Рашнгутз",
		"url": "/russian.html"
	},
	{
		"name": "Категории",
		"url": "/category.html"
	},
	{
		"name": "Категория",
		"url": "/"
	},
	{
		"name": "Категория",
		"url": "/"
	},
	{
		"name": "Категория",
		"url": "/"
	},
	{
		"name": "Категория",
		"url": "/"
	},
	{
		"name": "Категория",
		"url": "/"
	},
	{
		"name": "Категория",
		"url": "/"
	},
	{
		"name": "Категория",
		"url": "/"
	},
	{
		"name": "Категория",
		"url": "/"
	},
	{
		"name": "Категория",
		"url": "/"
	},
	{
		"name": "Категория",
		"url": "/"
	},
	{
		"name": "Категория",
		"url": "/"
	},
	{
		"name": "Категория",
		"url": "/"
	},
	{
		"name": "Категория",
		"url": "/"
	},
	{
		"name": "Категория",
		"url": "/"
	},
	{
		"name": "Категория",
		"url": "/"
	},
	{
		"name": "Категория",
		"url": "/"
	},
	{
		"name": "Категория",
		"url": "/"
	},
	{
		"name": "Категория",
		"url": "/"
	},
	{
		"name": "Категория",
		"url": "/"
	}
]
